electoral_report
…
Number of transit

In the first round, 332,547 were able to vote in transit. Of these, 7.728% abstained on voting day. In the second round, 314,803 were able to vote in transit. Of these, 9.582% abstained on voting day

These are top 10 cities that were ORIGIN of transit votes

# A tibble: 5,355 × 2
   NM_MUNICIPIO_ORIGEM number_of_people
   <chr>                          <int>
 1 S�O PAULO                      34841
 2 RIO DE JANEIRO                 24026
 3 BRAS�LIA                       15401
 4 SALVADOR                        8596
 5 BELO HORIZONTE                  8267
 6 PORTO ALEGRE                    6457
 7 CURITIBA                        6262
 8 MANAUS                          5629
 9 FORTALEZA                       5589
10 BEL�M                           5531
# ℹ 5,345 more rows

And these are top 10 cities that were DESTINATION of transit votes

# A tibble: 214 × 2
   NM_MUNICIPIO_DESTINO number_of_people
   <chr>                           <int>
 1 S�O PAULO                       46857
 2 RIO DE JANEIRO                  24813
 3 BRAS�LIA                        23703
 4 BELO HORIZONTE                  17476
 5 SALVADOR                        14133
 6 JO�O PESSOA                     12541
 7 CURITIBA                        12359
 8 FORTALEZA                       11457
 9 MANAUS                          11202
10 FLORIAN�POLIS                    9971
# ℹ 204 more rows
…
